INDEX VERSION 1.127+/home/osboxes/Documents/Ateliers/TOS_BD-20161026_1219-V6.3.0/workspace/.metadata/.plugins/org.eclipse.jdt.core
2052844623.index
609687425.index
713920835.index
490501644.index
206476668.index
963976221.index
3549193594.index
2817895166.index
3221685009.index
848039155.index
3601358906.index
2569608714.index
816796663.index
1702748700.index
2664663515.index
55846714.index
3658021068.index
3571633503.index
1770514769.index
1462267995.index
2185048909.index
120769981.index
82191103.index
344564468.index
1147821331.index
4178381690.index
3416074457.index
3804736869.index
1108007216.index
4287956067.index
1551311835.index
3775365670.index
2733193397.index
4057414270.index
2082949759.index
