=========0.615384615385, dirt 3, Unit 13
0.5, dirt 3, DiRT 3			==> 2eme
0.5, dirt 3, Sniper Elite 3
0.470588235294, dirt 3, Wii Party U
0.461538461538, dirt 3, Skate 3

=========0.555555555556, fifa 12, Titanfall 2  ==> None
0.5, fifa 12, Mafia III
0.461538461538, fifa 12, Cars 2
0.461538461538, fifa 12, NHL 12
0.461538461538, fifa 12, Ride 2

=========0.571428571429, fifa 13, Unit 13	==> None
0.5, fifa 13, Mafia III
0.461538461538, fifa 13, DiRT 3
0.461538461538, fifa 13, NHL 13
0.444444444444, fifa 13, Titanfall 2

=========0.5, fifa 14, Mafia III		==> None
0.461538461538, fifa 14, Halo 4
0.461538461538, fifa 14, NHL 14
0.444444444444, fifa 14, Titanfall 2
0.428571428571, fifa 14, F1 2014

=========0.5, fifa 17, Mafia III		==> None
0.461538461538, fifa 17, NHL 17
0.444444444444, fifa 17, Titanfall 2
0.428571428571, fifa 17, FIFA 17
0.428571428571, fifa 17, Unit 13

=========0.65, inazuma eleven 3, Inazuma Eleven Go: Light
0.636363636364, inazuma eleven 3, Inazuma Eleven 3: Bomb Blast  ==> 2eme
0.619047619048, inazuma eleven 3, Inazuma Eleven 2: Blizzard
0.583333333333, inazuma eleven 3, Inazuma Eleven 3: Lightning Bolt ==> 3eme
0.533333333333, inazuma eleven 3, Ninja Gaiden 3

=========0.571428571429, infamous 2, Titanfall 2  ==> None
0.5, infamous 2, Cars 2
0.454545454545, infamous 2, Dishonored 2
0.454545454545, infamous 2, Guild Wars 2
0.454545454545, infamous 2, Wipeout 2048

=========0.487804878049, lego batman 2, Lego Batman 3: Beyond Gotham  ==> None
0.466666666667, lego batman 2, LittleBigPlanet 2
0.466666666667, lego batman 2, Tales of Hearts R
0.466666666667, lego batman 2, Tales of Xillia 2
0.428571428571, lego batman 2, Mortal Kombat X

=========0.615384615385, nhl 13, Unit 13
0.555555555556, nhl 13, Stronghold 3
0.5, nhl 13, NHL 13                                  ==> 3eme
0.461538461538, nhl 13, F1 2013
0.461538461538, nhl 13, FIFA 13

=========0.5, nhl 14, Halo 4
0.5, nhl 14, NHL 14				     ==> 2eme
0.461538461538, nhl 14, F1 2014
0.461538461538, nhl 14, FIFA 14
0.461538461538, nhl 14, Unit 13

=========0.518518518519, star ocean 5, Just Dance 2015  ==> None
0.5, star ocean 5, Just Dance 2
0.5, star ocean 5, Just Dance 3
0.5, star ocean 5, Just Dance 4
0.5, star ocean 5, Resistance 3

=========0.540540540541, the witcher 2, The Witcher 3: Wild Hunt
0.48275862069, the witcher 2, The Technomancer
0.48, the witcher 2, The Smurfs 2
0.478260869565, the witcher 2, The Witcher 2: Assassins of Kings    ==> 4eme
0.457142857143, the witcher 2, Max & the Magic Marker

=========0.5, wwe 12, NHL 12
0.5, wwe 12, Ride 2
0.461538461538, wwe 12, F1 2012
0.461538461538, wwe 12, FIFA 12
0.461538461538, wwe 12, WWE '12					    ==> 5eme

=========0.5, wwe 13, NHL 13			==> None
0.461538461538, wwe 13, F1 2013
0.461538461538, wwe 13, FIFA 13
0.461538461538, wwe 13, Skate 3
0.461538461538, wwe 13, Unit 13

=========0.666666666667, grid 2, Ride 2		==> None
0.571428571429, grid 2, Crysis 2
0.5, grid 2, Cars 2
0.470588235294, grid 2, Angry Birds
0.444444444444, grid 2, Dishonored 2

